@startuml
class SistemaBibliotecario.Sanciones {
- List<Sancion> registrosDeSanciones
+ boolean añadirSancion(Sancion)
+ boolean eliminarSancion(Sancion)
+ List<Sancion> consultarSanciones(Usuario)
}
class SistemaBibliotecario.Sanciones$Sancion {
- Usuario usuario
- String motivo
- double monto
+ Usuario getUsuario()
+ String getMotivo()
+ void setMotivo(String)
+ double getMonto()
+ void setMonto(double)
}
class SistemaBibliotecario.UsuarioCliente {
+ void actualizarDatos(String,String)
+ List<Libro> verLibrosPrestados()
}
class SistemaBibliotecario.Usuario {
- String idUsuario
- String nombre
- String direccion
- List<Libro> librosPrestados
- List<Reseña> reseñas
+ String getIdUsuario()
+ void setIdUsuario(String)
+ String getNombre()
+ void setNombre(String)
+ String getDireccion()
+ void setDireccion(String)
+ List<Libro> getLibrosPrestados()
+ void prestarLibro(Libro)
+ void devolverLibro(Libro)
+ void añadirReseña(Reseña)
+ void eliminarReseña(Reseña)
}
class SistemaBibliotecario.Libro {
- String idLibro
- String titulo
- String genero
- String autor
- String estado
- int cantidad
- List<Reseña> reseñas
+ String getIdLibro()
+ String getTitulo()
+ String getGenero()
+ String getAutor()
+ String getEstado()
+ int getCantidad()
+ List<Reseña> getReseñas()
+ void actualizarEstado(String)
+ void anadirCopia()
+ void eliminarLibro()
+ boolean estaDisponible()
+ void añadirReseña(Reseña)
+ void eliminarReseña(Reseña)
}
class SistemaBibliotecario.Biblioteca {
- String nombre
- String direccion
- List<Libro> catalogoLibros
- List<Usuario> usuariosRegistrados
+ String getNombre()
+ void setNombre(String)
+ String getDireccion()
+ void setDireccion(String)
+ List<Libro> getCatalogoLibros()
+ List<Usuario> getUsuariosRegistrados()
+ boolean agregarLibro(Libro)
+ boolean eliminarLibro(String)
+ Libro buscarLibro(String)
+ boolean registrarUsuario(Usuario)
+ boolean eliminarUsuario(String)
+ Usuario buscarUsuario(String)
}
class SistemaBibliotecario.Reseña {
- String texto
- int calificacion
- Usuario usuario
- Libro libro
+ String getTexto()
+ void setTexto(String)
+ int getCalificacion()
+ boolean setCalificacion(int)
+ Usuario getUsuario()
+ Libro getLibro()
+ void modificarReseña(String,int)
+ void eliminarReseña()
}
class SistemaBibliotecario.ReservarLibro {
- List<Prestamo> reservas
+ void añadirReserva(Usuario,Libro)
+ void cancelarReserva(Prestamo)
+ List<Prestamo> getReservas()
}
class SistemaBibliotecario.UsuarioAdministrador {
- int multaPorDia
+ boolean registrarUsuario(Biblioteca,Usuario)
+ boolean agregarLibroBiblioteca(Biblioteca,Libro)
+ boolean eliminarLibroBiblioteca(Biblioteca,String)
+ boolean gestionarUsuarios(Biblioteca,Usuario)
+ boolean asignarMulta(Usuario,int)
}
class SistemaBibliotecario.Notificaciones {
+ void enviarRecordatorioDevolucion(Prestamo)
+ void enviarNotificacionReserva(Usuario,Libro)
+ void enviarAlertas(String)
+ void enviarNotificacionSancion(Sanciones.Sancion)
}
class SistemaBibliotecario.Main {
+ {static} void main(String[])
}
class SistemaBibliotecario.Prestamo {
- int duracionMaximaPrestamo
- Libro libro
- Usuario usuario
- int diasPrestamo
- Integer diasDevolucion
+ boolean renovarPrestamo()
+ void finalizarPrestamo()
+ Libro getLibro()
+ void setLibro(Libro)
+ Usuario getUsuario()
+ void setUsuario(Usuario)
+ int getDiasPrestamo()
+ void setDiasPrestamo(int)
+ Integer getDiasDevolucion()
+ void setDiasDevolucion(Integer)
}


SistemaBibliotecario.Sanciones +.. SistemaBibliotecario.Sanciones$Sancion
SistemaBibliotecario.Usuario <|-- SistemaBibliotecario.UsuarioCliente
SistemaBibliotecario.Usuario <|-- SistemaBibliotecario.UsuarioAdministrador
@enduml